<svg width="40" height="40" viewBox="0 0 40 40" fill="none" xmlns="http://www.w3.org/2000/svg">
<circle cx="20" cy="20" r="20" fill="#151F35"/>
<g clip-path="url(#clip0)">
<path d="M28.1426 23H22.5898C21.8854 23 21.3121 23.5668 21.3041 24.2712L21.2991 24.7168L18.7346 24.7151L18.7411 24.306C18.7524 23.588 18.1735 23 17.4555 23H11.8569V14C11.8569 12.3431 13.2001 11 14.8569 11H25.1426C26.7995 11 28.1426 12.3431 28.1426 14V23ZM19.5712 17.8571H17.4284C17.1917 17.8571 16.9998 18.049 16.9998 18.2857C16.9998 18.5224 17.1917 18.7143 17.4284 18.7143H19.5712V20.8571C19.5712 21.0938 19.7631 21.2857 19.9998 21.2857C20.2365 21.2857 20.4284 21.0938 20.4284 20.8571V18.7143H22.5712C22.8079 18.7143 22.9998 18.5224 22.9998 18.2857C22.9998 18.049 22.8079 17.8571 22.5712 17.8571H20.4284V15.7143C20.4284 15.4776 20.2365 15.2857 19.9998 15.2857C19.7631 15.2857 19.5712 15.4776 19.5712 15.7143V17.8571Z" fill="white"/>
<path fill-rule="evenodd" clip-rule="evenodd" d="M22.1614 24.2809C22.1641 24.0461 22.3552 23.8572 22.59 23.8572H28.5716C28.842 23.8572 29.0449 24.1046 28.9918 24.3698L28.5481 26.5884C28.2677 27.9907 27.0364 29 25.6064 29H14.3939C12.9639 29 11.7326 27.9907 11.4522 26.5884L11.0085 24.3698C10.9554 24.1046 11.1583 23.8572 11.4287 23.8572H17.4557C17.695 23.8572 17.888 24.0532 17.8842 24.2925L17.8641 25.5718L22.1468 25.5746L22.1614 24.2809Z" fill="white" fill-opacity="0.5"/>
</g>
<defs>
<clipPath id="clip0">
<rect x="11" y="11" width="18" height="18" fill="white"/>
</clipPath>
</defs>
</svg>
