<svg width="24" height="26" viewBox="0 0 24 26" fill="none" xmlns="http://www.w3.org/2000/svg">
<g clip-path="url(#clip0)">
<path d="M4.87584 24.0005H4C1.79086 24.0005 0 22.2097 0 20.0005V0.571948C0 0.173929 0.396737 -0.102168 0.769962 0.0361171L5.2227 1.68592L9.5093 0.038553C9.63925 -0.0113894 9.78297 -0.0121709 9.91346 0.0363552L14.3132 1.67251L18.6558 0.0371819C19.0295 -0.103544 19.4286 0.172637 19.4286 0.571948V18.2862H4.27395L5.35201 20.3788C5.59917 20.8586 5.71429 21.306 5.71429 21.7386C5.71429 22.1619 5.60411 22.5926 5.36818 23.0487L4.87584 24.0005ZM9.71429 6.85714H5.14286C4.82727 6.85714 4.57143 7.11298 4.57143 7.42857C4.57143 7.74416 4.82727 8 5.14286 8H9.71429C10.0299 8 10.2857 7.74416 10.2857 7.42857C10.2857 7.11298 10.0299 6.85714 9.71429 6.85714ZM14.2857 11.4286H5.14286C4.82727 11.4286 4.57143 11.6844 4.57143 12C4.57143 12.3156 4.82727 12.5714 5.14286 12.5714H14.2857C14.6013 12.5714 14.8571 12.3156 14.8571 12C14.8571 11.6844 14.6013 11.4286 14.2857 11.4286Z" fill="#FACC01"/>
<path fill-rule="evenodd" clip-rule="evenodd" d="M20.6501 19.4287C22.2026 19.4581 23.4522 20.7258 23.4522 22.2853C23.4522 23.8633 22.173 25.1425 20.595 25.1425H5.72563C6.65959 24.2301 7.15654 23.2913 7.15469 22.3057C7.15283 21.3197 6.65206 20.367 5.71436 19.4287H20.6501Z" fill="white"/>
</g>
<defs>
<clipPath id="clip0">
<rect width="24" height="25.1429" fill="white"/>
</clipPath>
</defs>
</svg>
