<svg width="18" height="23" viewBox="0 0 18 23" fill="none" xmlns="http://www.w3.org/2000/svg">
<path fill-rule="evenodd" clip-rule="evenodd" d="M13.1802 0.283272C13.277 1.5475 12.8772 2.79968 12.0657 3.77389C11.2783 4.75315 10.0854 5.31721 8.82891 5.30427C8.74901 4.07643 9.16045 2.86719 9.97262 1.94288C10.7951 1.00605 11.9404 0.413492 13.1802 0.283272ZM17.1539 7.71162C15.7086 8.60019 14.8192 10.1672 14.7973 11.8637C14.7994 13.783 15.9488 15.5152 17.7166 16.2629C17.3766 17.3673 16.8641 18.411 16.1981 19.3554C15.3038 20.6933 14.366 22.0003 12.8776 22.0245C12.1698 22.0408 11.6919 21.8373 11.194 21.6252C10.6747 21.4039 10.1335 21.1734 9.28662 21.1734C8.38848 21.1734 7.82305 21.4114 7.27773 21.6409C6.80647 21.8392 6.35022 22.0312 5.70722 22.0579C4.28977 22.1104 3.20649 20.6299 2.27959 19.3046C0.426983 16.598 -1.01561 11.6769 0.918393 8.3285C1.82657 6.69653 3.52463 5.66094 5.39131 5.60063C6.19523 5.58409 6.96665 5.89394 7.64297 6.1656C8.1602 6.37336 8.62181 6.55877 8.99981 6.55877C9.3321 6.55877 9.78082 6.38068 10.3038 6.17312C11.1276 5.84618 12.1355 5.44613 13.1627 5.55394C14.7588 5.60388 16.2379 6.40351 17.1539 7.71162Z" fill="white"/>
</svg>
