<svg width="18" height="18" viewBox="0 0 18 18" fill="none" xmlns="http://www.w3.org/2000/svg">
<g clip-path="url(#clip0)">
<path d="M2.56588 7.71429C1.1508 7.71429 -0.00651272 6.62546 2.75851e-05 5.19418L0.857519 0.353841C0.893778 0.149161 1.07174 0 1.27968 0H16.714C16.9221 0 17.1002 0.149368 17.1363 0.354226L18 5.29933C17.9827 6.64302 16.8311 7.71429 15.4278 7.71429C14.5104 7.71429 13.7366 7.39048 13.2842 6.82412C12.8318 7.39048 12.058 7.71429 11.1405 7.71429C10.2231 7.71429 9.4493 7.39006 8.99691 6.82362C8.54449 7.39005 7.77063 7.71429 6.8532 7.71429C5.93586 7.71429 5.162 7.38963 4.7096 6.82313C4.25715 7.38963 3.48323 7.71429 2.56588 7.71429Z" fill="white" fill-opacity="0.5"/>
<path d="M14.5712 18.0001V10.5286C14.5712 10.2859 14.3793 10.0891 14.1426 10.0891H9.85693C9.62024 10.0891 9.42836 10.2859 9.42836 10.5286V18.0001H2.57122C1.62445 18.0001 0.856934 17.213 0.856934 16.2421V7.87932C1.35909 8.16761 1.94207 8.33111 2.56468 8.33111C3.37474 8.33111 4.11865 8.11763 4.70758 7.71436C5.29648 8.11764 6.04035 8.33111 6.8504 8.33111C7.66057 8.33111 8.40442 8.11784 8.99329 7.71474C9.58213 8.11784 10.3259 8.33111 11.1361 8.33111C11.9464 8.33111 12.6902 8.11804 13.279 7.71513C13.8678 8.11804 14.6115 8.33111 15.4218 8.33111C16.047 8.33111 16.6355 8.16512 17.1426 7.87418V16.2421C17.1426 17.213 16.3751 18.0001 15.4284 18.0001H14.5712ZM3.85693 10.0891C3.62024 10.0891 3.42836 10.2859 3.42836 10.5286V14.0446C3.42836 14.2873 3.62024 14.4841 3.85693 14.4841H7.2855C7.5222 14.4841 7.71408 14.2873 7.71408 14.0446V10.5286C7.71408 10.2859 7.5222 10.0891 7.2855 10.0891H3.85693ZM4.2855 10.9681H6.85693V13.6051H4.2855V10.9681Z" fill="white"/>
<path fill-rule="evenodd" clip-rule="evenodd" d="M10.2856 18.0001H13.7142V11.1429H10.2856V18.0001Z" fill="white"/>
</g>
<defs>
<clipPath id="clip0">
<rect width="18" height="18" fill="white"/>
</clipPath>
</defs>
</svg>
